{
  "componentId": {
    "scope": "teambit.ui-foundation",
    "name": "ui",
    "version": "0.0.10"
  },
  "propagate": true,
  "extensions": {
    "teambit.dependencies/dependency-resolver": {
      "policy": {
        "dependencies": {
          "postcss": "8.4.18",
          "sanitize.css": "12.0.1",
          "sass": "1.63.6",
          "less": "^4.1.1",
          "@teambit/legacy": "-",
          "@babel/runtime": "7.23.2"
        },
        "devDependencies": {
          "@types/mocha": "9.1.0",
          "@types/node": "12.20.4",
          "@types/postcss-normalize": "9.0.1",
          "@teambit/legacy": "-",
          "@types/webpack-dev-server": "-"
        },
        "peerDependencies": {
          "@teambit/legacy": "1.0.673"
        }
      }
    },
    "teambit.envs/envs": {
      "env": "teambit.harmony/envs/core-aspect-env"
    },
    "teambit.harmony/envs/core-aspect-env@0.0.27": {}
  }
}
