{
  "componentId": {
    "scope": "teambit.react",
    "name": "react-native",
    "version": "0.0.197"
  },
  "propagate": true,
  "extensions": {
    "teambit.dependencies/dependency-resolver": {
      "policy": {
        "dependencies": {
          "@teambit/legacy": "-"
        },
        "devDependencies": {
          "@teambit/legacy": "-",
          "@types/react": "^17.0.8",
          "@types/react-dom": "^17.0.5"
        },
        "peerDependencies": {
          "react": "^16.8.0 || ^17.0.0",
          "react-dom": "^16.8.0 || ^17.0.0",
          "react-native-web": "^0.16.0",
          "@teambit/legacy": "1.0.673"
        }
      }
    },
    "teambit.envs/envs": {
      "env": "teambit.harmony/envs/core-aspect-env"
    },
    "teambit.harmony/envs/core-aspect-env@0.0.27": {}
  }
}
