{
  "componentId": {
    "scope": "teambit.react",
    "name": "react",
    "version": "0.0.10"
  },
  "propagate": true,
  "extensions": {
    "teambit.dependencies/dependency-resolver": {
      "policy": {
        "dependencies": {
          "react": "-",
          "react-dom": "-",
          "@babel/helper-plugin-test-runner": "7.16.7",
          "@typescript-eslint/parser": "7.1.0",
          "@typescript-eslint/eslint-plugin": "7.1.0",
          "esbuild": "0.14.29",
          "eslint-plugin-jest": "24.1.5",
          "eslint-plugin-import": "2.22.1",
          "eslint-plugin-react-hooks": "4.2.0",
          "eslint-plugin-react": "7.22.0",
          "eslint-plugin-jsx-a11y": "6.4.1",
          "eslint-plugin-mdx": "1.17.1",
          "@mdx-js/react": "1.6.22",
          "jest-environment-jsdom": "27.5.1",
          "sanitize.css": "12.0.1",
          "sass": "1.63.6",
          "less": "^4.1.1",
          "@teambit/legacy": "-",
          "@babel/runtime": "7.23.2",
          "react-refresh": "0.10.0"
        },
        "devDependencies": {
          "react": "-",
          "react-dom": "-",
          "@teambit/legacy": "-",
          "@types/mocha": "9.1.0",
          "@types/node": "12.20.4",
          "@types/postcss-normalize": "9.0.1",
          "@types/react": "^17.0.8",
          "@types/react-dom": "^17.0.5"
        },
        "peerDependencies": {
          "react": "^16.8.0 || ^17.0.0",
          "react-dom": "^16.8.0 || ^17.0.0",
          "@teambit/legacy": "1.0.673"
        }
      }
    },
    "teambit.envs/env": {},
    "teambit.envs/envs": {
      "env": "teambit.envs/env"
    }
  }
}
